<?xml version="1.0" encoding="utf-8"?>
<!-- Generator: Adobe Illustrator 26.3.0, SVG Export Plug-In . SVG Version: 6.00 Build 0)  -->
<svg version="1.1" id="Layer_1" xmlns="http://www.w3.org/2000/svg" xmlns:xlink="http://www.w3.org/1999/xlink" x="0px" y="0px"
	 viewBox="0 0 300 300" style="enable-background:new 0 0 300 300;" xml:space="preserve">
<style type="text/css">
	.st0{fill:#D4A00F;}
</style>
<g>
	<path class="st0" d="M28.1,105.5h28.1c2.6,0,4.7-2.1,4.7-4.7s-2.1-4.7-4.7-4.7H28.1c-2.6,0-4.7,2.1-4.7,4.7S25.5,105.5,28.1,105.5z
		"/>
	<path class="st0" d="M56.2,114.8H28.1c-2.6,0-4.7,2.1-4.7,4.7s2.1,4.7,4.7,4.7h28.1c2.6,0,4.7-2.1,4.7-4.7S58.8,114.8,56.2,114.8z"
		/>
	<path class="st0" d="M56.2,133.6H28.1c-2.6,0-4.7,2.1-4.7,4.7c0,2.6,2.1,4.7,4.7,4.7h28.1c2.6,0,4.7-2.1,4.7-4.7
		C60.9,135.7,58.8,133.6,56.2,133.6z"/>
	<path class="st0" d="M56.2,152.3H28.1c-2.6,0-4.7,2.1-4.7,4.7c0,2.6,2.1,4.7,4.7,4.7h28.1c2.6,0,4.7-2.1,4.7-4.7
		C60.9,154.5,58.8,152.3,56.2,152.3z"/>
	<path class="st0" d="M56.2,171.1H28.1c-2.6,0-4.7,2.1-4.7,4.7c0,2.6,2.1,4.7,4.7,4.7h28.1c2.6,0,4.7-2.1,4.7-4.7
		C60.9,173.2,58.8,171.1,56.2,171.1z"/>
	<path class="st0" d="M56.2,189.8H28.1c-2.6,0-4.7,2.1-4.7,4.7c0,2.6,2.1,4.7,4.7,4.7h28.1c2.6,0,4.7-2.1,4.7-4.7
		C60.9,192,58.8,189.8,56.2,189.8z"/>
	<path class="st0" d="M56.2,208.6H28.1c-2.6,0-4.7,2.1-4.7,4.7c0,2.6,2.1,4.7,4.7,4.7h28.1c2.6,0,4.7-2.1,4.7-4.7
		C60.9,210.7,58.8,208.6,56.2,208.6z"/>
	<path class="st0" d="M56.2,227.3H28.1c-2.6,0-4.7,2.1-4.7,4.7c0,2.6,2.1,4.7,4.7,4.7h28.1c2.6,0,4.7-2.1,4.7-4.7
		C60.9,229.5,58.8,227.3,56.2,227.3z"/>
	<path class="st0" d="M56.2,246.1H28.1c-2.6,0-4.7,2.1-4.7,4.7c0,2.6,2.1,4.7,4.7,4.7h28.1c2.6,0,4.7-2.1,4.7-4.7
		C60.9,248.2,58.8,246.1,56.2,246.1z"/>
	<path class="st0" d="M300,269.5V91.4c0-7.7-6.3-14.1-14.1-14.1h-9.4v-4.7c0-7.7-6.3-14.1-14.1-14.1H225V9.4c0-5.2-4.2-9.4-9.4-9.4
		H84.4C79.2,0,75,4.2,75,9.4v49.2H37.5c-7.7,0-14.1,6.3-14.1,14.1v4.7h-9.4C6.3,77.3,0,83.7,0,91.4v178.1c0,2.6,2.1,4.7,4.7,4.7
		h65.2L3.8,290.9c-2.6,0.7-4,3.3-3.5,5.6c0.5,2.1,2.3,3.5,4.5,3.5c0.5,0,0.7,0,1.2-0.2l102.7-25.5h83.2l102.7,25.5
		c0.5,0,0.7,0.2,1.2,0.2c2.6,0,4.7-2.1,4.7-4.7c0-2.1-1.4-4-3.5-4.5l-66.3-16.6h64.9C297.9,274.2,300,272.1,300,269.5L300,269.5z
		 M262.5,68c2.6,0,4.7,2.1,4.7,4.7v4.7H225V68H262.5z M107.8,264.8V164.1h84.4v100.8H107.8z M84.4,9.4h131.3v255.5h-14.1V164.1
		c0-5.2-4.2-9.4-9.4-9.4h-84.4c-5.2,0-9.4,4.2-9.4,9.4v100.8H84.4L84.4,9.4z M32.8,72.7c0-2.6,2.1-4.7,4.7-4.7H75v9.4H32.8
		L32.8,72.7z M9.4,91.4c0-2.6,2.1-4.7,4.7-4.7H75v178.1H9.4L9.4,91.4z M290.6,264.8H225V86.7h60.9c2.6,0,4.7,2.1,4.7,4.7
		L290.6,264.8z"/>
	<path class="st0" d="M271.9,96.1h-28.1c-2.6,0-4.7,2.1-4.7,4.7s2.1,4.7,4.7,4.7h28.1c2.6,0,4.7-2.1,4.7-4.7S274.5,96.1,271.9,96.1z
		"/>
	<path class="st0" d="M271.9,114.8h-28.1c-2.6,0-4.7,2.1-4.7,4.7s2.1,4.7,4.7,4.7h28.1c2.6,0,4.7-2.1,4.7-4.7
		S274.5,114.8,271.9,114.8z"/>
	<path class="st0" d="M271.9,133.6h-28.1c-2.6,0-4.7,2.1-4.7,4.7c0,2.6,2.1,4.7,4.7,4.7h28.1c2.6,0,4.7-2.1,4.7-4.7
		C276.6,135.7,274.5,133.6,271.9,133.6z"/>
	<path class="st0" d="M271.9,152.3h-28.1c-2.6,0-4.7,2.1-4.7,4.7c0,2.6,2.1,4.7,4.7,4.7h28.1c2.6,0,4.7-2.1,4.7-4.7
		C276.6,154.5,274.5,152.3,271.9,152.3z"/>
	<path class="st0" d="M271.9,171.1h-28.1c-2.6,0-4.7,2.1-4.7,4.7c0,2.6,2.1,4.7,4.7,4.7h28.1c2.6,0,4.7-2.1,4.7-4.7
		C276.6,173.2,274.5,171.1,271.9,171.1z"/>
	<path class="st0" d="M271.9,189.8h-28.1c-2.6,0-4.7,2.1-4.7,4.7c0,2.6,2.1,4.7,4.7,4.7h28.1c2.6,0,4.7-2.1,4.7-4.7
		C276.6,192,274.5,189.8,271.9,189.8z"/>
	<path class="st0" d="M271.9,208.6h-28.1c-2.6,0-4.7,2.1-4.7,4.7c0,2.6,2.1,4.7,4.7,4.7h28.1c2.6,0,4.7-2.1,4.7-4.7
		C276.6,210.7,274.5,208.6,271.9,208.6z"/>
	<path class="st0" d="M271.9,227.3h-28.1c-2.6,0-4.7,2.1-4.7,4.7c0,2.6,2.1,4.7,4.7,4.7h28.1c2.6,0,4.7-2.1,4.7-4.7
		C276.6,229.5,274.5,227.3,271.9,227.3z"/>
	<path class="st0" d="M271.9,246.1h-28.1c-2.6,0-4.7,2.1-4.7,4.7c0,2.6,2.1,4.7,4.7,4.7h28.1c2.6,0,4.7-2.1,4.7-4.7
		C276.6,248.2,274.5,246.1,271.9,246.1z"/>
	<path class="st0" d="M103.1,56.2c2.6,0,4.7-2.1,4.7-4.7V28.1c0-2.6-2.1-4.7-4.7-4.7s-4.7,2.1-4.7,4.7v23.4
		C98.4,54.1,100.5,56.2,103.1,56.2z"/>
	<path class="st0" d="M121.9,56.2c2.6,0,4.7-2.1,4.7-4.7V28.1c0-2.6-2.1-4.7-4.7-4.7s-4.7,2.1-4.7,4.7v23.4
		C117.2,54.1,119.3,56.2,121.9,56.2z"/>
	<path class="st0" d="M140.6,56.2c2.6,0,4.7-2.1,4.7-4.7V28.1c0-2.6-2.1-4.7-4.7-4.7s-4.7,2.1-4.7,4.7v23.4
		C135.9,54.1,138,56.2,140.6,56.2z"/>
	<path class="st0" d="M159.4,56.2c2.6,0,4.7-2.1,4.7-4.7V28.1c0-2.6-2.1-4.7-4.7-4.7s-4.7,2.1-4.7,4.7v23.4
		C154.7,54.1,156.8,56.2,159.4,56.2z"/>
	<path class="st0" d="M178.1,56.2c2.6,0,4.7-2.1,4.7-4.7V28.1c0-2.6-2.1-4.7-4.7-4.7s-4.7,2.1-4.7,4.7v23.4
		C173.4,54.1,175.5,56.2,178.1,56.2z"/>
	<path class="st0" d="M196.9,56.2c2.6,0,4.7-2.1,4.7-4.7V28.1c0-2.6-2.1-4.7-4.7-4.7s-4.7,2.1-4.7,4.7v23.4
		C192.2,54.1,194.3,56.2,196.9,56.2z"/>
	<path class="st0" d="M103.1,98.4c2.6,0,4.7-2.1,4.7-4.7V70.3c0-2.6-2.1-4.7-4.7-4.7s-4.7,2.1-4.7,4.7v23.4
		C98.4,96.3,100.5,98.4,103.1,98.4z"/>
	<path class="st0" d="M121.9,98.4c2.6,0,4.7-2.1,4.7-4.7V70.3c0-2.6-2.1-4.7-4.7-4.7s-4.7,2.1-4.7,4.7v23.4
		C117.2,96.3,119.3,98.4,121.9,98.4z"/>
	<path class="st0" d="M140.6,98.4c2.6,0,4.7-2.1,4.7-4.7V70.3c0-2.6-2.1-4.7-4.7-4.7s-4.7,2.1-4.7,4.7v23.4
		C135.9,96.3,138,98.4,140.6,98.4z"/>
	<path class="st0" d="M159.4,98.4c2.6,0,4.7-2.1,4.7-4.7V70.3c0-2.6-2.1-4.7-4.7-4.7s-4.7,2.1-4.7,4.7v23.4
		C154.7,96.3,156.8,98.4,159.4,98.4z"/>
	<path class="st0" d="M178.1,98.4c2.6,0,4.7-2.1,4.7-4.7V70.3c0-2.6-2.1-4.7-4.7-4.7s-4.7,2.1-4.7,4.7v23.4
		C173.4,96.3,175.5,98.4,178.1,98.4z"/>
	<path class="st0" d="M196.9,98.4c2.6,0,4.7-2.1,4.7-4.7V70.3c0-2.6-2.1-4.7-4.7-4.7s-4.7,2.1-4.7,4.7v23.4
		C192.2,96.3,194.3,98.4,196.9,98.4z"/>
	<path class="st0" d="M103.1,140.6c2.6,0,4.7-2.1,4.7-4.7v-23.4c0-2.6-2.1-4.7-4.7-4.7s-4.7,2.1-4.7,4.7v23.4
		C98.4,138.5,100.5,140.6,103.1,140.6z"/>
	<path class="st0" d="M121.9,140.6c2.6,0,4.7-2.1,4.7-4.7v-23.4c0-2.6-2.1-4.7-4.7-4.7s-4.7,2.1-4.7,4.7v23.4
		C117.2,138.5,119.3,140.6,121.9,140.6z"/>
	<path class="st0" d="M140.6,140.6c2.6,0,4.7-2.1,4.7-4.7v-23.4c0-2.6-2.1-4.7-4.7-4.7s-4.7,2.1-4.7,4.7v23.4
		C135.9,138.5,138,140.6,140.6,140.6z"/>
	<path class="st0" d="M159.4,140.6c2.6,0,4.7-2.1,4.7-4.7v-23.4c0-2.6-2.1-4.7-4.7-4.7s-4.7,2.1-4.7,4.7v23.4
		C154.7,138.5,156.8,140.6,159.4,140.6z"/>
	<path class="st0" d="M178.1,140.6c2.6,0,4.7-2.1,4.7-4.7v-23.4c0-2.6-2.1-4.7-4.7-4.7s-4.7,2.1-4.7,4.7v23.4
		C173.4,138.5,175.5,140.6,178.1,140.6z"/>
	<path class="st0" d="M196.9,140.6c2.6,0,4.7-2.1,4.7-4.7v-23.4c0-2.6-2.1-4.7-4.7-4.7s-4.7,2.1-4.7,4.7v23.4
		C192.2,138.5,194.3,140.6,196.9,140.6z"/>
	<path class="st0" d="M178.1,283.6h-56.2c-2.6,0-4.7,2.1-4.7,4.7s2.1,4.7,4.7,4.7h56.2c2.6,0,4.7-2.1,4.7-4.7
		S180.7,283.6,178.1,283.6z"/>
</g>
</svg>
