<?xml version="1.0" encoding="utf-8"?>
<!-- Generator: Adobe Illustrator 26.3.0, SVG Export Plug-In . SVG Version: 6.00 Build 0)  -->
<svg version="1.1" id="Layer_1" xmlns="http://www.w3.org/2000/svg" xmlns:xlink="http://www.w3.org/1999/xlink" x="0px" y="0px"
	 viewBox="0 0 2000 132" style="enable-background:new 0 0 2000 132;" xml:space="preserve">
<style type="text/css">
	.st0{opacity:0.2;fill:#D4A00F;}
	.st1{opacity:0.5;fill:#D4A00F;}
</style>
<path class="st0" d="M0,0v132h1519.7C1519.7,132,808.3,117.6,0,0z"/>
<path class="st1" d="M2000,22.4V132H0v-30.9C0,101.1,1011.5,132,2000,22.4z"/>
</svg>
